{
		"default-text":{
				"gchararray":"Apertis"
		},
		"default-icon":{
				"gchararray":"icon_vehicle_AC.png"
		},
		"status-bar-font":{
				"gchararray":"DejaVuSansCondensed 24px"
		},
        "status-bar-bg":{    
                "gchararray":"StatusBar_plain_bg.png"
        },
        "status-bar-container-bg":{    
                "gchararray":"status_bar_container.png"
        },
        "status-bar-container-pos-x":{
        		"gint":71
        },
        "status-bar-container-pos-y":{
        		"gint":4
        },
        "status-bar-container-width":{
        		"gint":660
        },
        "status-bar-container-height":{
        		"gint":45
        },
        "expanded-bg-x":{
        		"gint":37
        },
        "expanded-bg-y":{
        		"gint":1
        },
        "expanded-bg-width":{
        		"gint":273
        },
        "expanded-bg-height":{
        		"gint":40
        },
        "exapanded-background":{
        		"gchararray":"DarkImage.png"
        },
        "status-bar-left-arrow":{    
                "gchararray":"roller_arrow_left.png"
        },
        "status-bar-right-arrow":{    
                "gchararray":"roller_arrow_right.png"
        },
        "status-bar-left-arrow-x":{    
                "gint":15
        },
        "status-bar-right-arrow-x":{    
                "gint":643
        },
        "status-bar-arrow-y":{    
                "gint":17
        },
        "status-bar-width":{    
                "gint":800
        },
        "status-bar-height":{    
                "gint":50
        },
        "divider-line-width":{    
                "gint":1
        },
        "divider-line-height":{    
                "gint":35
        },
		"left-divider-line-x":{
                "gint":33
        }, 
        "right-divider-line-x":{
                "gint":633
        },
        "first-divider-line-x":{
        		"gint":85
        },
        "divider-line-y":{
				"gint":5
		},
        "expanded-view-width":{
                "gint":225
        },
        "time-x-pos":{
                "gint":567
        },
        "time-y-pos":{
                "gint":7
        },
		"text-x-pos":{
				"gint":90
		},
		"text-y-pos":{
				"gint":7
		},
		"text-width":{
				"gint":200
		},
		"text-height":{
				"gint":50
		},
		"icon-width":{
				"gint":30
		},
		"icon-height":{
				"gint":50
		},
		"first-icon-x":{
				"gint":45
		},
		"first-icon-y":{
				"gint":0
		},
		"texture-dist-diff":{
				"gint":50
		},
		"divider-line-dist-diff":{
				"gint":50
		}
}
